^C:\USERS\MATISS\DESKTOP\SNAKE\SNAKE\MAIN.CPP
/c /ZI /nologo /W3 /WX- /sdl /Od /Oy- /D _CRT_SECURE_NO_WARNINGS /D _MBCS /Gm /EHsc /RTC1 /MTd /GS /fp:precise /Zc:wchar_t /Zc:forScope /Fo"DEBUG\\" /Fd"DEBUG\VC120.PDB" /Gd /TP /analyze- C:\USERS\MATISS\DESKTOP\SNAKE\SNAKE\MAIN.CPP
^C:\USERS\MATISS\DESKTOP\SNAKE\SNAKE\POINT.CPP
/c /ZI /nologo /W3 /WX- /sdl /Od /Oy- /D _CRT_SECURE_NO_WARNINGS /D _MBCS /Gm /EHsc /RTC1 /MTd /GS /fp:precise /Zc:wchar_t /Zc:forScope /Fo"DEBUG\\" /Fd"DEBUG\VC120.PDB" /Gd /TP /analyze- C:\USERS\MATISS\DESKTOP\SNAKE\SNAKE\POINT.CPP
^C:\USERS\MATISS\DESKTOP\SNAKE\SNAKE\SHADERLOADER.CPP
/c /ZI /nologo /W3 /WX- /sdl /Od /Oy- /D _CRT_SECURE_NO_WARNINGS /D _MBCS /Gm /EHsc /RTC1 /MTd /GS /fp:precise /Zc:wchar_t /Zc:forScope /Fo"DEBUG\\" /Fd"DEBUG\VC120.PDB" /Gd /TP /analyze- C:\USERS\MATISS\DESKTOP\SNAKE\SNAKE\SHADERLOADER.CPP
