^C:\USERS\MATISS\DESKTOP\SNAKE\SNAKE\MAIN.CPP|C:\USERS\MATISS\DESKTOP\SNAKE\SNAKE\POINT.CPP|C:\USERS\MATISS\DESKTOP\SNAKE\SNAKE\SHADERLOADER.CPP
C:\USERS\MATISS\DESKTOP\SNAKE\SNAKE\RELEASE\VC120.PDB
C:\USERS\MATISS\DESKTOP\SNAKE\SNAKE\RELEASE\SHADERLOADER.OBJ
C:\USERS\MATISS\DESKTOP\SNAKE\SNAKE\RELEASE\POINT.OBJ
C:\USERS\MATISS\DESKTOP\SNAKE\SNAKE\RELEASE\MAIN.OBJ
^C:\USERS\MATISS\DESKTOP\SNAKE\SNAKE\MAIN.CPP
C:\USERS\MATISS\DESKTOP\SNAKE\SNAKE\RELEASE\VC120.PDB
^C:\USERS\MATISS\DESKTOP\SNAKE\SNAKE\POINT.CPP
C:\USERS\MATISS\DESKTOP\SNAKE\SNAKE\RELEASE\VC120.PDB
^C:\USERS\MATISS\DESKTOP\SNAKE\SNAKE\SHADERLOADER.CPP
C:\USERS\MATISS\DESKTOP\SNAKE\SNAKE\RELEASE\VC120.PDB
